<?xml version="1.0" encoding="utf-8"?>
<!-- Generator: Adobe Illustrator 19.2.1, SVG Export Plug-In . SVG Version: 6.00 Build 0)  -->
<svg version="1.1" id="Layer_1" xmlns="http://www.w3.org/2000/svg" xmlns:xlink="http://www.w3.org/1999/xlink" x="0px" y="0px"
	 viewBox="0 0 52 52" style="enable-background:new 0 0 52 52;" xml:space="preserve">
<path d="M49.4,12.2c-0.2-0.6-0.9-0.7-1.4-0.3L39.9,20c-0.6,0.6-1.6,0.6-2.2,0L32,14.3c-0.6-0.6-0.6-1.6,0-2.2L40.2,4
	c0.4-0.4,0.2-1.1-0.3-1.4C38.5,2.2,37,2,35.6,2c-8.5,0-15.3,7.3-14.3,16c0.2,1.4,0.5,2.6,1,3.8L3.6,40.4c-2.2,2.2-2.2,5.8,0,7.9
	c1.1,1.1,2.6,1.7,4,1.7s2.9-0.6,4-1.7l18.6-18.6c1.2,0.5,2.5,0.8,3.8,1c8.7,1,16-5.8,16-14.3C50,14.9,49.8,13.5,49.4,12.2z"/>
</svg>
